ID: 4F2 Data: 43 7B BE 57
ID: 275 Data: 30 0 FF
ID: 46 Data: 86 1 FF 0 0 0 5 70
ID: 190 Data: 80 52 0 0 3C 1 0 3C
ID: 190 Data: 80 52 0 0 3C 2 0 3C
ID: 231 Data: 71 A7 64 0 0 32 80
ID: 200 Data: 826 C5 26 C5 26 C5 88 16
ID: 200 Data: 826 C5 26 C5 26 C5 88 16
ID: 200 Data: 826 C5 26 C5 26 C5 80 16
ID: 200 Data: 828 B3 26 C5 26 C5 80 16
ID: 433 Data: 8C0 1 42 5 0 0 0 0
ID: 200 Data: 828 B3 26 C5 26 C5 80 16
ID: 240 Data: 20 60
ID: 200 Data: 828 B2 26 C5 26 C5 80 16
ID: 200 Data: 828 B2 26 C5 26 C5 80 16
ID: 200 Data: 828 B2 26 C5 26 C5 80 16
ID: 240 Data: 20 60
ID: 200 Data: 828 B3 26 C5 26 C5 80 16
ID: 190 Data: 80 50 0 0 3C 3 0 3C
ID: 200 Data: 828 B2 26 C5 26 C5 80 16
ID: 190 Data: 80 50 0 0 3C 8 0 3C
ID: 200 Data: 828 B2 26 C5 26 C5 80 16
ID: 190 Data: 80 50 0 0 3C D 0 3C
ID: 200 Data: 828 B3 26 C5 26 C5 80 16
ID: 190 Data: 80 50 0 0 3C 2 0 3C
ID: 200 Data: 828 B3 26 C5 26 C5 80 16
ID: 190 Data: 80 50 0 0 3C 7 0 3C
ID: 200 Data: 828 B3 26 C5 26 C5 80 16
ID: 190 Data: 80 50 0 0 3C C 0 3C
ID: 200 Data: 828 B3 26 C5 26 C5 80 16
ID: 190 Data: 80 50 0 0 3C 1 0 3C
ID: 200 Data: 828 B3 26 C5 26 C5 80 16
ID: 190 Data: 80 50 0 0 3C 6 0 3C
ID: 200 Data: 828 B3 26 C5 26 C5 80 16
ID: 190 Data: 80 50 0 0 3C B 0 3C
ID: 200 Data: 828 B2 26 C5 26 C5 80 16
ID: 190 Data: 80 50 0 0 3C 0 0 3C
ID: 200 Data: 828 B3 26 C5 26 C5 80 16
ID: 190 Data: 80 50 0 0 3C 5 0 3C
ID: 200 Data: 828 B3 26 C5 26 C5 80 16
ID: 190 Data: 80 50 0 0 3C A 0 3C
ID: 200 Data: 828 B3 26 C5 26 C5 80 16
ID: 190 Data: 80 50 0 0 3C F 0 3C
ID: 200 Data: 828 B3 26 C5 26 C5 80 16
ID: 190 Data: 80 50 0 0 3C 4 0 3C
ID: 200 Data: 828 B3 26 C5 26 C5 80 16
ID: 190 Data: 80 50 0 0 3C 9 0 3C
ID: 200 Data: 828 B2 26 C5 26 C5 80 16
ID: 190 Data: 80 50 0 0 3C E 0 3C
ID: 200 Data: 828 B1 26 C5 26 C5 80 16
ID: 190 Data: 80 50 0 0 3C 3 0 3C
ID: 200 Data: 828 B1 26 C5 26 C5 80 16
ID: 190 Data: 80 50 0 0 3C 8 0 3C
ID: 200 Data: 828 A2 26 C5 26 C5 80 16
ID: 190 Data: 80 50 0 0 3C D 0 3C
ID: 200 Data: 828 5D 26 C9 26 C9 80 24
ID: 190 Data: 80 50 0 0 3C 2 0 3C
ID: 200 Data: 828 67 26 DE 26 DE 80 24
ID: 190 Data: 80 50 0 0 3C 7 0 3C
ID: 200 Data: 828 65 26 DE 26 DE 80 24
ID: 190 Data: 80 50 0 0 3C C 0 3C
ID: 200 Data: 828 64 26 D5 26 D5 80 23
ID: 190 Data: 80 50 0 0 3C 1 0 3C
ID: 200 Data: 828 67 26 D5 26 D5 80 23
ID: 190 Data: 80 50 0 0 3C 6 0 3C
ID: 200 Data: 828 64 26 D0 26 D0 80 23
ID: 190 Data: 80 50 0 0 3C B 0 3C
ID: 200 Data: 828 66 26 D0 26 D0 80 23
ID: 190 Data: 80 50 0 0 3C 0 0 3C
ID: 200 Data: 828 61 26 CE 26 CE 80 22
ID: 190 Data: 80 50 0 0 3C 5 0 3C
ID: 240 Data: 20 60
ID: 190 Data: 80 50 0 0 3C A 0 3C
ID: 240 Data: 20 60
ID: 240 Data: 20 60
ID: 240 Data: 20 60
ID: 190 Data: 80 50 0 0 3C 1 0 3C
ID: 275 Data: 380 0 FF
ID: 240 Data: 20 60
ID: 190 Data: 80 50 0 0 3C 6 0 3C
ID: 240 Data: 20 60
ID: 240 Data: 20 60
ID: 240 Data: 20 60
ID: 240 Data: 20 60
ID: 200 Data: 827 6A 26 A9 26 A9 80 1F
ID: 201 Data: 85 D6 3B 2E 0 0 0 80
ID: 430 Data: 235 72
ID: 275 Data: 3E0 0 FF
ID: 200 Data: 827 4E 26 A9 26 A9 80 1F
ID: 190 Data: 80 51 0 0 3C 8 0 3C
ID: 200 Data: 827 45 26 AA 26 AA 80 1F
ID: 190 Data: 80 50 0 0 3C D 0 3C
ID: 200 Data: 827 40 26 AB 26 AB 80 1E
ID: 280 Data: 80 8 32 0 0 0 0 0
ID: 240 Data: 220 60
ID: 200 Data: 827 39 26 AC 26 AC 80 1E
ID: 240 Data: 21E 60
ID: 240 Data: 21E 60
ID: 240 Data: 21E 60
ID: 190 Data: 80 51 0 0 3C E 0 3C
ID: 240 Data: 21E 60
ID: 430 Data: 235 72
ID: 240 Data: 21F 60
ID: 240 Data: 21F 60
ID: 190 Data: 80 50 0 0 3C 6 0 3C
ID: 200 Data: 827 33 26 AE 26 AE 80 1E
ID: 240 Data: 220 60
ID: 200 Data: 827 32 26 AF 26 AF 80 1E
ID: 190 Data: 80 51 0 0 3C E 0 3C
ID: 460 Data: 83 C0 0 0 3 0 0 0
ID: 190 Data: 80 50 0 0 3C 3 0 3C
ID: 240 Data: 21F 60
ID: 240 Data: 21F 60
ID: 201 Data: 84 1B 40 61 0 0 0 80
ID: 4F2 Data: 43 7B BE 57
ID: 190 Data: 80 50 0 0 3C D 0 3C
ID: 190 Data: 80 51 0 0 3C F 0 3C
ID: 240 Data: 21F 60
ID: 460 Data: 83 C0 0 0 3 0 0 0
ID: 205 Data: 82 9 1 E2 2 93 1 E2
ID: 430 Data: 235 73
ID: 460 Data: 83 C0 0 0 3 0 0 0
ID: 190 Data: 80 50 0 0 3C B 0 3C
ID: 430 Data: 235 72
ID: 200 Data: 827 36 27 98 27 98 80 1E
ID: 240 Data: 220 60
